[        Hz]; Y Open control loop[dB]; Y Closed control loop[dB]; Bandwidth[]; Amplitude margin[]; Phase margin[]; 
+1.0173; +12.9190; +0.0719; +5.0000; -25.4582; +10.0000; 
+1.2207; +11.3412; +0.0659; -5.0000; +5.0000; -10.0000; 
+1.4242; +9.8874; +0.0455; +0.0000; +0.0000; +0.0000; 
+1.6276; +8.6593; +0.0200; +0.0000; +0.0000; +0.0000; 
+1.8311; +7.6273; -0.000775; +0.0000; +0.0000; +0.0000; 
+2.0345; +6.6043; -0.0549; +0.0000; +0.0000; +0.0000; 
+2.2380; +5.6165; -0.1794; +0.0000; +0.0000; +0.0000; 
+2.4414; +4.8783; -0.3407; +0.0000; +0.0000; +0.0000; 
+2.6449; +4.3313; -0.4489; +0.0000; +0.0000; +0.0000; 
+2.8483; +3.7961; -0.4970; +0.0000; +0.0000; +0.0000; 
+3.0518; +3.2406; -0.5485; +0.0000; +0.0000; +0.0000; 
+3.2552; +2.7253; -0.6361; +0.0000; +0.0000; +0.0000; 
+3.4587; +2.3147; -0.6949; +0.0000; +0.0000; +0.0000; 
+3.6621; +1.9153; -0.7049; +0.0000; +0.0000; +0.0000; 
+3.8656; +1.4864; -0.7028; +0.0000; +0.0000; +0.0000; 
+4.0690; +1.0421; -0.7387; +0.0000; +0.0000; +0.0000; 
+4.2725; +0.5832; -0.8056; +0.0000; +0.0000; +0.0000; 
+4.4759; +0.1421; -0.8973; +0.0000; +0.0000; +0.0000; 
+4.6794; -0.2979; -1.0350; +0.0000; +0.0000; +0.0000; 
+4.8828; -0.6838; -1.1927; +0.0000; +0.0000; +0.0000; 
+5.0863; -1.0278; -1.3205; +0.0000; +0.0000; +0.0000; 
+5.2897; -1.3608; -1.4542; +0.0000; +0.0000; +0.0000; 
+5.4932; -1.6789; -1.6100; +0.0000; +0.0000; +0.0000; 
+5.6966; -1.9527; -1.7537; +0.0000; +0.0000; +0.0000; 
+5.9001; -2.1846; -1.8536; +0.0000; +0.0000; +0.0000; 
+6.1035; -2.4217; -1.9442; +0.0000; +0.0000; +0.0000; 
+6.3070; -2.6558; -2.0496; +0.0000; +0.0000; +0.0000; 
+6.5104; -2.8696; -2.1376; +0.0000; +0.0000; +0.0000; 
+6.7139; -3.0794; -2.2112; +0.0000; +0.0000; +0.0000; 
+6.9173; -3.3108; -2.3046; +0.0000; +0.0000; +0.0000; 
+7.1208; -3.5619; -2.4256; +0.0000; +0.0000; +0.0000; 
+7.3242; -3.8193; -2.5789; +0.0000; +0.0000; +0.0000; 
+7.5277; -4.0724; -2.7452; +0.0000; +0.0000; +0.0000; 
+7.7311; -4.3179; -2.9110; +0.0000; +0.0000; +0.0000; 
+7.9346; -4.5828; -3.0910; +0.0000; +0.0000; +0.0000; 
+8.1380; -4.8740; -3.3062; +0.0000; +0.0000; +0.0000; 
+8.3415; -5.1982; -3.5775; +0.0000; +0.0000; +0.0000; 
+8.5449; -5.5356; -3.8787; +0.0000; +0.0000; +0.0000; 
+8.7484; -5.8814; -4.1955; +0.0000; +0.0000; +0.0000; 
+8.9518; -6.2357; -4.5179; +0.0000; +0.0000; +0.0000; 
+9.1553; -6.6308; -4.8737; +0.0000; +0.0000; +0.0000; 
+9.3587; -7.0529; -5.2699; +0.0000; +0.0000; +0.0000; 
+9.5622; -7.4804; -5.6685; +0.0000; +0.0000; +0.0000; 
+9.7656; -7.9001; -6.0606; +0.0000; +0.0000; +0.0000; 
+9.9691; -8.2828; -6.4007; +0.0000; +0.0000; +0.0000; 
+10.1725; -8.6712; -6.7363; +0.0000; +0.0000; +0.0000; 
+10.3760; -9.0430; -7.0697; +0.0000; +0.0000; +0.0000; 
+10.5794; -9.3792; -7.3762; +0.0000; +0.0000; +0.0000; 
+10.7829; -9.6713; -7.6571; +0.0000; +0.0000; +0.0000; 
+10.9863; -9.9037; -7.8662; +0.0000; +0.0000; +0.0000; 
+11.1898; -10.1455; -8.1239; +0.0000; +0.0000; +0.0000; 
+11.3932; -10.3277; -8.3152; +0.0000; +0.0000; +0.0000; 
+11.5967; -10.5385; -8.5611; +0.0000; +0.0000; +0.0000; 
+11.8001; -10.7773; -8.8673; +0.0000; +0.0000; +0.0000; 
+12.0036; -10.9984; -9.1718; +0.0000; +0.0000; +0.0000; 
+12.2070; -11.2243; -9.5024; +0.0000; +0.0000; +0.0000; 
+12.4105; -11.4543; -9.8435; +0.0000; +0.0000; +0.0000; 
+12.6139; -11.7528; -10.2652; +0.0000; +0.0000; +0.0000; 
+12.8174; -12.1533; -10.8080; +0.0000; +0.0000; +0.0000; 
+13.0208; -12.6478; -11.4572; +0.0000; +0.0000; +0.0000; 
+13.2243; -13.2532; -12.2075; +0.0000; +0.0000; +0.0000; 
+13.4277; -13.9981; -13.0841; +0.0000; +0.0000; +0.0000; 
+13.6312; -14.9311; -14.1209; +0.0000; +0.0000; +0.0000; 
+13.8346; -16.0078; -15.2529; +0.0000; +0.0000; +0.0000; 
+14.0381; -17.2795; -16.5582; +0.0000; +0.0000; +0.0000; 
+14.2415; -18.5319; -17.8171; +0.0000; +0.0000; +0.0000; 
+14.4450; -19.3959; -18.6705; +0.0000; +0.0000; +0.0000; 
+14.6484; -20.3079; -19.5934; +0.0000; +0.0000; +0.0000; 
+14.8519; -20.2263; -19.4824; +0.0000; +0.0000; +0.0000; 
+15.0553; -19.9420; -19.1672; +0.0000; +0.0000; +0.0000; 
+15.2588; -19.2505; -18.4201; +0.0000; +0.0000; +0.0000; 
+15.4622; -18.7040; -17.8529; +0.0000; +0.0000; +0.0000; 
+15.6657; -18.1627; -17.3220; +0.0000; +0.0000; +0.0000; 
+15.8691; -17.5770; -16.7674; +0.0000; +0.0000; +0.0000; 
+16.0726; -17.0710; -16.3290; +0.0000; +0.0000; +0.0000; 
+16.2760; -16.8020; -16.1542; +0.0000; +0.0000; +0.0000; 
+16.4795; -16.8306; -16.3487; +0.0000; +0.0000; +0.0000; 
+16.6829; -16.8946; -16.6107; +0.0000; +0.0000; +0.0000; 
+16.8864; -17.0256; -16.9313; +0.0000; +0.0000; +0.0000; 
+17.0898; -17.2577; -17.3464; +0.0000; +0.0000; +0.0000; 
+17.2933; -17.5345; -17.7314; +0.0000; +0.0000; +0.0000; 
+17.4967; -18.3397; -18.5501; +0.0000; +0.0000; +0.0000; 
+17.7002; -19.8479; -19.9979; +0.0000; +0.0000; +0.0000; 
+17.9036; -22.1866; -22.2356; +0.0000; +0.0000; +0.0000; 
+18.1071; -25.7580; -25.7166; +0.0000; +0.0000; +0.0000; 
+18.3105; -29.0686; -29.0177; +0.0000; +0.0000; +0.0000; 
+18.5140; -30.7238; -30.5898; +0.0000; +0.0000; +0.0000; 
+18.7174; -31.4400; -31.2932; +0.0000; +0.0000; +0.0000; 
+18.9209; -30.4532; -30.3071; +0.0000; +0.0000; +0.0000; 
+19.1243; -28.6983; -28.5565; +0.0000; +0.0000; +0.0000; 
+19.3278; -27.2726; -27.1407; +0.0000; +0.0000; +0.0000; 
+19.5313; -26.5708; -26.4557; +0.0000; +0.0000; +0.0000; 
+19.7347; -26.4917; -26.4031; +0.0000; +0.0000; +0.0000; 
+19.9382; -27.4767; -27.4291; +0.0000; +0.0000; +0.0000; 
+20.1416; -28.5240; -28.5419; +0.0000; +0.0000; +0.0000; 
+20.3451; -29.4886; -29.5680; +0.0000; +0.0000; +0.0000; 
+20.5485; -30.3380; -30.4545; +0.0000; +0.0000; +0.0000; 
+20.7520; -30.7251; -30.8784; +0.0000; +0.0000; +0.0000; 
+20.9554; -31.0403; -31.2004; +0.0000; +0.0000; +0.0000; 
+21.1589; -30.8166; -30.9754; +0.0000; +0.0000; +0.0000; 
+21.3623; -30.8676; -30.9873; +0.0000; +0.0000; +0.0000; 
+21.5658; -30.7394; -30.8544; +0.0000; +0.0000; +0.0000; 
+21.7692; -29.2693; -29.3721; +0.0000; +0.0000; +0.0000; 
+21.9727; -28.1068; -28.1883; +0.0000; +0.0000; +0.0000; 
+22.1761; -26.9949; -27.0572; +0.0000; +0.0000; +0.0000; 
+22.3796; -26.4176; -26.4578; +0.0000; +0.0000; +0.0000; 
+22.5830; -26.2106; -26.2497; +0.0000; +0.0000; +0.0000; 
+22.7865; -25.6774; -25.7279; +0.0000; +0.0000; +0.0000; 
+22.9899; -25.9577; -25.9902; +0.0000; +0.0000; +0.0000; 
+23.1934; -27.1569; -27.1933; +0.0000; +0.0000; +0.0000; 
+23.3968; -28.4712; -28.5521; +0.0000; +0.0000; +0.0000; 
+23.6003; -28.7864; -28.9058; +0.0000; +0.0000; +0.0000; 
+23.8037; -28.4837; -28.6179; +0.0000; +0.0000; +0.0000; 
+24.0072; -28.2718; -28.3851; +0.0000; +0.0000; +0.0000; 
+24.2106; -27.8327; -27.9195; +0.0000; +0.0000; +0.0000; 
+24.4141; -26.8531; -26.9172; +0.0000; +0.0000; +0.0000; 
+24.6175; -25.7227; -25.7688; +0.0000; +0.0000; +0.0000; 
+24.8210; -24.6591; -24.7117; +0.0000; +0.0000; +0.0000; 
+25.0244; -23.7553; -23.8396; +0.0000; +0.0000; +0.0000; 
+25.2279; -22.9991; -23.1229; +0.0000; +0.0000; +0.0000; 
+25.4313; -22.6543; -22.8211; +0.0000; +0.0000; +0.0000; 
+25.6348; -22.3309; -22.5296; +0.0000; +0.0000; +0.0000; 
+25.8382; -22.2630; -22.4640; +0.0000; +0.0000; +0.0000; 
+26.0417; -22.2695; -22.4527; +0.0000; +0.0000; +0.0000; 
+26.2451; -22.0297; -22.1728; +0.0000; +0.0000; +0.0000; 
+26.4486; -21.6365; -21.7160; +0.0000; +0.0000; +0.0000; 
+26.6520; -21.2395; -21.2562; +0.0000; +0.0000; +0.0000; 
+26.8555; -20.8796; -20.8492; +0.0000; +0.0000; +0.0000; 
+27.0589; -20.7692; -20.7080; +0.0000; +0.0000; +0.0000; 
+27.2624; -20.6797; -20.6129; +0.0000; +0.0000; +0.0000; 
+27.4658; -20.6234; -20.5442; +0.0000; +0.0000; +0.0000; 
+27.6693; -20.5399; -20.4200; +0.0000; +0.0000; +0.0000; 
+27.8727; -20.7897; -20.6131; +0.0000; +0.0000; +0.0000; 
+28.0762; -21.4248; -21.2365; +0.0000; +0.0000; +0.0000; 
+28.2796; -21.6481; -21.4929; +0.0000; +0.0000; +0.0000; 
+28.4831; -22.1821; -22.0443; +0.0000; +0.0000; +0.0000; 
+28.6865; -22.2842; -22.2448; +0.0000; +0.0000; +0.0000; 
+28.8900; -21.7655; -21.7945; +0.0000; +0.0000; +0.0000; 
+29.0934; -21.4012; -21.4364; +0.0000; +0.0000; +0.0000; 
+29.2969; -21.1548; -21.1917; +0.0000; +0.0000; +0.0000; 
+29.5003; -20.7427; -20.7568; +0.0000; +0.0000; +0.0000; 
+29.7038; -20.1304; -20.1339; +0.0000; +0.0000; +0.0000; 
+29.9072; -19.2780; -19.2317; +0.0000; +0.0000; +0.0000; 
+30.1107; -18.6244; -18.5537; +0.0000; +0.0000; +0.0000; 
+30.3141; -18.1558; -18.0784; +0.0000; +0.0000; +0.0000; 
+30.5176; -18.0878; -18.0217; +0.0000; +0.0000; +0.0000; 
+30.7210; -18.2911; -18.2555; +0.0000; +0.0000; +0.0000; 
+30.9245; -18.6141; -18.5878; +0.0000; +0.0000; +0.0000; 
+31.1279; -19.0441; -18.9805; +0.0000; +0.0000; +0.0000; 
+31.3314; -19.2587; -19.1171; +0.0000; +0.0000; +0.0000; 
+31.5348; -19.0348; -18.8162; +0.0000; +0.0000; +0.0000; 
+31.7383; -18.3054; -18.0250; +0.0000; +0.0000; +0.0000; 
+31.9417; -17.4123; -17.1006; +0.0000; +0.0000; +0.0000; 
+32.1452; -16.6881; -16.3770; +0.0000; +0.0000; +0.0000; 
+32.3486; -16.3442; -16.0698; +0.0000; +0.0000; +0.0000; 
+32.5521; -16.3758; -16.1498; +0.0000; +0.0000; +0.0000; 
+32.7555; -16.5474; -16.3260; +0.0000; +0.0000; +0.0000; 
+32.9590; -16.7110; -16.4088; +0.0000; +0.0000; +0.0000; 
+33.1624; -16.5835; -16.1230; +0.0000; +0.0000; +0.0000; 
+33.3659; -16.0443; -15.3629; +0.0000; +0.0000; +0.0000; 
+33.5693; -15.4062; -14.4998; +0.0000; +0.0000; +0.0000; 
+33.7728; -14.9782; -13.8995; +0.0000; +0.0000; +0.0000; 
+33.9762; -15.0547; -13.9000; +0.0000; +0.0000; +0.0000; 
+34.1797; -15.7532; -14.6370; +0.0000; +0.0000; +0.0000; 
+34.3831; -16.9767; -16.0034; +0.0000; +0.0000; +0.0000; 
+34.5866; -18.2813; -17.4698; +0.0000; +0.0000; +0.0000; 
+34.7900; -19.0967; -18.3795; +0.0000; +0.0000; +0.0000; 
+34.9935; -19.2640; -18.5468; +0.0000; +0.0000; +0.0000; 
+35.1969; -18.9585; -18.1910; +0.0000; +0.0000; +0.0000; 
+35.4004; -18.4454; -17.6219; +0.0000; +0.0000; +0.0000; 
+35.6038; -17.9776; -17.1193; +0.0000; +0.0000; +0.0000; 
+35.8073; -17.6587; -16.7931; +0.0000; +0.0000; +0.0000; 
+36.0107; -17.6160; -16.7540; +0.0000; +0.0000; +0.0000; 
+36.2142; -17.9136; -17.0692; +0.0000; +0.0000; +0.0000; 
+36.4176; -18.2164; -17.3595; +0.0000; +0.0000; +0.0000; 
+36.6211; -18.2697; -17.3711; +0.0000; +0.0000; +0.0000; 
+36.8245; -18.1427; -17.1892; +0.0000; +0.0000; +0.0000; 
+37.0280; -18.1258; -17.1554; +0.0000; +0.0000; +0.0000; 
+37.2314; -18.6227; -17.7206; +0.0000; +0.0000; +0.0000; 
+37.4349; -18.6336; -17.8046; +0.0000; +0.0000; +0.0000; 
+37.6383; -17.8648; -16.8583; +0.0000; +0.0000; +0.0000; 
+37.8418; -18.3842; -17.3624; +0.0000; +0.0000; +0.0000; 
+38.0452; -18.2930; -17.2370; +0.0000; +0.0000; +0.0000; 
+38.2487; -18.1356; -17.0545; +0.0000; +0.0000; +0.0000; 
+38.4521; -18.2943; -17.2418; +0.0000; +0.0000; +0.0000; 
+38.6556; -18.7959; -17.8080; +0.0000; +0.0000; +0.0000; 
+38.8590; -19.5552; -18.6264; +0.0000; +0.0000; +0.0000; 
+39.0625; -20.2893; -19.4118; +0.0000; +0.0000; +0.0000; 
+39.2660; -20.4968; -19.6354; +0.0000; +0.0000; +0.0000; 
+39.4694; -20.4823; -19.6207; +0.0000; +0.0000; +0.0000; 
+39.6729; -20.9352; -20.1181; +0.0000; +0.0000; +0.0000; 
+39.8763; -21.9899; -21.2754; +0.0000; +0.0000; +0.0000; 
+40.0798; -23.6008; -23.0244; +0.0000; +0.0000; +0.0000; 
+40.2832; -25.2810; -24.8202; +0.0000; +0.0000; +0.0000; 
+40.4867; -26.1510; -25.7369; +0.0000; +0.0000; +0.0000; 
+40.6901; -25.4497; -24.9985; +0.0000; +0.0000; +0.0000; 
+40.8936; -24.2103; -23.6964; +0.0000; +0.0000; +0.0000; 
+41.0970; -23.4317; -22.8789; +0.0000; +0.0000; +0.0000; 
+41.3005; -23.5843; -23.0530; +0.0000; +0.0000; +0.0000; 
+41.5039; -24.3584; -23.8797; +0.0000; +0.0000; +0.0000; 
+41.7074; -24.6823; -24.2208; +0.0000; +0.0000; +0.0000; 
+41.9108; -24.3809; -23.8850; +0.0000; +0.0000; +0.0000; 
+42.1143; -24.2979; -23.7998; +0.0000; +0.0000; +0.0000; 
+42.3177; -24.3123; -23.8402; +0.0000; +0.0000; +0.0000; 
+42.5212; -24.6020; -24.1729; +0.0000; +0.0000; +0.0000; 
+42.7246; -24.9275; -24.5265; +0.0000; +0.0000; +0.0000; 
+42.9281; -24.6509; -24.2257; +0.0000; +0.0000; +0.0000; 
+43.1315; -23.8036; -23.3235; +0.0000; +0.0000; +0.0000; 
+43.3350; -23.0207; -22.5118; +0.0000; +0.0000; +0.0000; 
+43.5384; -22.8047; -22.3079; +0.0000; +0.0000; +0.0000; 
+43.7419; -23.2258; -22.7556; +0.0000; +0.0000; +0.0000; 
+43.9453; -23.7073; -23.2297; +0.0000; +0.0000; +0.0000; 
+44.1488; -23.4109; -22.8765; +0.0000; +0.0000; +0.0000; 
+44.3522; -22.7863; -22.2032; +0.0000; +0.0000; +0.0000; 
+44.5557; -22.3967; -21.8144; +0.0000; +0.0000; +0.0000; 
+44.7591; -22.5539; -22.0143; +0.0000; +0.0000; +0.0000; 
+44.9626; -23.2165; -22.7197; +0.0000; +0.0000; +0.0000; 
+45.1660; -23.5467; -23.0508; +0.0000; +0.0000; +0.0000; 
+45.3695; -22.9248; -22.3766; +0.0000; +0.0000; +0.0000; 
+45.5729; -22.1252; -21.5249; +0.0000; +0.0000; +0.0000; 
+45.7764; -21.9590; -21.3620; +0.0000; +0.0000; +0.0000; 
+45.9798; -22.3280; -21.7765; +0.0000; +0.0000; +0.0000; 
+46.1833; -22.5707; -22.0370; +0.0000; +0.0000; +0.0000; 
+46.3867; -22.2189; -21.6441; +0.0000; +0.0000; +0.0000; 
+46.5902; -21.4503; -20.8121; +0.0000; +0.0000; +0.0000; 
+46.7936; -20.7536; -20.0641; +0.0000; +0.0000; +0.0000; 
+46.9971; -20.3989; -19.6941; +0.0000; +0.0000; +0.0000; 
+47.2005; -20.3136; -19.5791; +0.0000; +0.0000; +0.0000; 
+47.4040; -19.9929; -19.1908; +0.0000; +0.0000; +0.0000; 
+47.6074; -19.7771; -18.8915; +0.0000; +0.0000; +0.0000; 
+47.8109; -20.0241; -19.1691; +0.0000; +0.0000; +0.0000; 
+48.0143; -19.8736; -19.0014; +0.0000; +0.0000; +0.0000; 
+48.2178; -20.1438; -19.2995; +0.0000; +0.0000; +0.0000; 
+48.4212; -20.3083; -19.4739; +0.0000; +0.0000; +0.0000; 
+48.6247; -20.2954; -19.4484; +0.0000; +0.0000; +0.0000; 
+48.8281; -20.1324; -19.2647; +0.0000; +0.0000; +0.0000; 
+49.0316; -19.9897; -19.1126; +0.0000; +0.0000; +0.0000; 
+49.2350; -19.6884; -18.7830; +0.0000; +0.0000; +0.0000; 
+49.4385; -19.4514; -18.5116; +0.0000; +0.0000; +0.0000; 
+49.6419; -19.2504; -18.2762; +0.0000; +0.0000; +0.0000; 
+49.8454; -19.0039; -17.9888; +0.0000; +0.0000; +0.0000; 
+50.0488; -18.7117; -17.6499; +0.0000; +0.0000; +0.0000; 
+50.2523; -18.5733; -17.4859; +0.0000; +0.0000; +0.0000; 
+50.4557; -19.1285; -18.1109; +0.0000; +0.0000; +0.0000; 
+50.6592; -19.2392; -18.2353; +0.0000; +0.0000; +0.0000; 
+50.8626; -19.3289; -18.3369; +0.0000; +0.0000; +0.0000; 
+51.0661; -19.2241; -18.2215; +0.0000; +0.0000; +0.0000; 
+51.2695; -19.0965; -18.0783; +0.0000; +0.0000; +0.0000; 
+51.4730; -19.1927; -18.1865; +0.0000; +0.0000; +0.0000; 
+51.6764; -19.3533; -18.3716; +0.0000; +0.0000; +0.0000; 
+51.8799; -19.2367; -18.2541; +0.0000; +0.0000; +0.0000; 
+52.0833; -18.8568; -17.8380; +0.0000; +0.0000; +0.0000; 
+52.2868; -18.7205; -17.6894; +0.0000; +0.0000; +0.0000; 
+52.4902; -19.2321; -18.2812; +0.0000; +0.0000; +0.0000; 
+52.6937; -20.0550; -19.2241; +0.0000; +0.0000; +0.0000; 
+52.8971; -20.3992; -19.6059; +0.0000; +0.0000; +0.0000; 
+53.1006; -20.0707; -19.2460; +0.0000; +0.0000; +0.0000; 
+53.3040; -19.8738; -19.0225; +0.0000; +0.0000; +0.0000; 
+53.5075; -20.2513; -19.4586; +0.0000; +0.0000; +0.0000; 
+53.7109; -20.3287; -19.5910; +0.0000; +0.0000; +0.0000; 
+53.9144; -20.1165; -19.3969; +0.0000; +0.0000; +0.0000; 
+54.1178; -20.2688; -19.5598; +0.0000; +0.0000; +0.0000; 
+54.3213; -20.9852; -20.3368; +0.0000; +0.0000; +0.0000; 
+54.5247; -21.7724; -21.2054; +0.0000; +0.0000; +0.0000; 
+54.7282; -21.8277; -21.3013; +0.0000; +0.0000; +0.0000; 
+54.9316; -21.6540; -21.1155; +0.0000; +0.0000; +0.0000; 
+55.1351; -21.8569; -21.3099; +0.0000; +0.0000; +0.0000; 
+55.3385; -22.6425; -22.1454; +0.0000; +0.0000; +0.0000; 
+55.5420; -22.9566; -22.5104; +0.0000; +0.0000; +0.0000; 
+55.7454; -22.3920; -21.9415; +0.0000; +0.0000; +0.0000; 
+55.9489; -22.1874; -21.7083; +0.0000; +0.0000; +0.0000; 
+56.1523; -23.0248; -22.5705; +0.0000; +0.0000; +0.0000; 
+56.3558; -23.9615; -23.5806; +0.0000; +0.0000; +0.0000; 
+56.5592; -23.9412; -23.5981; +0.0000; +0.0000; +0.0000; 
+56.7627; -23.5613; -23.1862; +0.0000; +0.0000; +0.0000; 
+56.9661; -23.9283; -23.5333; +0.0000; +0.0000; +0.0000; 
+57.1696; -24.8469; -24.4947; +0.0000; +0.0000; +0.0000; 
+57.3730; -25.0206; -24.7108; +0.0000; +0.0000; +0.0000; 
+57.5765; -24.5468; -24.2280; +0.0000; +0.0000; +0.0000; 
+57.7799; -24.4319; -24.0930; +0.0000; +0.0000; +0.0000; 
+57.9834; -25.2708; -24.9538; +0.0000; +0.0000; +0.0000; 
+58.1868; -25.8827; -25.6054; +0.0000; +0.0000; +0.0000; 
+58.3903; -25.5367; -25.2609; +0.0000; +0.0000; +0.0000; 
+58.5938; -25.1818; -24.8900; +0.0000; +0.0000; +0.0000; 
+58.7972; -25.5717; -25.2885; +0.0000; +0.0000; +0.0000; 
+59.0007; -26.1448; -25.8864; +0.0000; +0.0000; +0.0000; 
+59.2041; -26.1078; -25.8635; +0.0000; +0.0000; +0.0000; 
+59.4076; -25.7935; -25.5453; +0.0000; +0.0000; +0.0000; 
+59.6110; -25.7635; -25.5114; +0.0000; +0.0000; +0.0000; 
+59.8145; -26.1612; -25.9244; +0.0000; +0.0000; +0.0000; 
+60.0179; -26.5439; -26.3336; +0.0000; +0.0000; +0.0000; 
+60.2214; -26.5962; -26.3998; +0.0000; +0.0000; +0.0000; 
+60.4248; -26.8242; -26.6340; +0.0000; +0.0000; +0.0000; 
+60.6283; -27.2501; -27.0742; +0.0000; +0.0000; +0.0000; 
+60.8317; -27.4774; -27.3186; +0.0000; +0.0000; +0.0000; 
+61.0352; -27.4981; -27.3407; +0.0000; +0.0000; +0.0000; 
+61.2386; -27.7323; -27.5754; +0.0000; +0.0000; +0.0000; 
+61.4421; -28.0976; -27.9512; +0.0000; +0.0000; +0.0000; 
+61.6455; -28.3022; -28.1683; +0.0000; +0.0000; +0.0000; 
+61.8490; -28.3833; -28.2530; +0.0000; +0.0000; +0.0000; 
+62.0524; -28.6801; -28.5480; +0.0000; +0.0000; +0.0000; 
+62.2559; -29.1830; -29.0594; +0.0000; +0.0000; +0.0000; 
+62.4593; -29.5129; -29.4047; +0.0000; +0.0000; +0.0000; 
+62.6628; -29.4495; -29.3400; +0.0000; +0.0000; +0.0000; 
+62.8662; -29.6898; -29.5699; +0.0000; +0.0000; +0.0000; 
+63.0697; -30.4737; -30.3574; +0.0000; +0.0000; +0.0000; 
+63.2731; -30.9517; -30.8518; +0.0000; +0.0000; +0.0000; 
+63.4766; -30.6753; -30.5768; +0.0000; +0.0000; +0.0000; 
+63.6800; -30.5379; -30.4210; +0.0000; +0.0000; +0.0000; 
+63.8835; -30.9281; -30.8055; +0.0000; +0.0000; +0.0000; 
+64.0869; -30.9892; -30.8738; +0.0000; +0.0000; +0.0000; 
+64.2904; -30.8457; -30.7378; +0.0000; +0.0000; +0.0000; 
+64.4938; -30.9632; -30.8519; +0.0000; +0.0000; +0.0000; 
+64.6973; -31.1304; -31.0226; +0.0000; +0.0000; +0.0000; 
+64.9007; -31.3071; -31.2063; +0.0000; +0.0000; +0.0000; 
+65.1042; -31.5645; -31.4702; +0.0000; +0.0000; +0.0000; 
+65.3076; -31.8199; -31.7337; +0.0000; +0.0000; +0.0000; 
+65.5111; -31.9461; -31.8568; +0.0000; +0.0000; +0.0000; 
+65.7145; -32.4133; -32.3224; +0.0000; +0.0000; +0.0000; 
+65.9180; -33.0398; -32.9552; +0.0000; +0.0000; +0.0000; 
+66.1214; -33.0577; -32.9749; +0.0000; +0.0000; +0.0000; 
+66.3249; -32.9195; -32.8271; +0.0000; +0.0000; +0.0000; 
+66.5283; -32.9231; -32.8259; +0.0000; +0.0000; +0.0000; 
+66.7318; -32.6459; -32.5470; +0.0000; +0.0000; +0.0000; 
+66.9352; -32.5476; -32.4469; +0.0000; +0.0000; +0.0000; 
+67.1387; -32.8139; -32.7226; +0.0000; +0.0000; +0.0000; 
+67.3421; -32.8579; -32.7767; +0.0000; +0.0000; +0.0000; 
+67.5456; -32.7060; -32.6199; +0.0000; +0.0000; +0.0000; 
+67.7490; -33.0837; -32.9953; +0.0000; +0.0000; +0.0000; 
+67.9525; -33.6245; -33.5450; +0.0000; +0.0000; +0.0000; 
+68.1559; -33.5015; -33.4282; +0.0000; +0.0000; +0.0000; 
+68.3594; -33.3975; -33.3158; +0.0000; +0.0000; +0.0000; 
+68.5628; -34.0360; -33.9543; +0.0000; +0.0000; +0.0000; 
+68.7663; -34.6657; -34.6009; +0.0000; +0.0000; +0.0000; 
+68.9697; -34.2823; -34.2230; +0.0000; +0.0000; +0.0000; 
+69.1732; -33.9735; -33.9044; +0.0000; +0.0000; +0.0000; 
+69.3766; -34.3408; -34.2703; +0.0000; +0.0000; +0.0000; 
+69.5801; -34.2096; -34.1446; +0.0000; +0.0000; +0.0000; 
+69.7835; -33.9145; -33.8459; +0.0000; +0.0000; +0.0000; 
+69.9870; -34.1052; -34.0307; +0.0000; +0.0000; +0.0000; 
+70.1904; -34.5518; -34.4797; +0.0000; +0.0000; +0.0000; 
+70.3939; -34.9140; -34.8425; +0.0000; +0.0000; +0.0000; 
+70.5973; -35.5751; -35.5120; +0.0000; +0.0000; +0.0000; 
+70.8008; -35.5830; -35.5342; +0.0000; +0.0000; +0.0000; 
+71.0042; -35.1480; -35.0990; +0.0000; +0.0000; +0.0000; 
+71.2077; -35.6352; -35.5823; +0.0000; +0.0000; +0.0000; 
+71.4111; -36.3419; -36.2997; +0.0000; +0.0000; +0.0000; 
+71.6146; -36.4365; -36.3999; +0.0000; +0.0000; +0.0000; 
+71.8180; -36.7997; -36.7582; +0.0000; +0.0000; +0.0000; 
+72.0215; -38.5038; -38.4635; +0.0000; +0.0000; +0.0000; 
+72.2249; -38.1717; -38.1296; +0.0000; +0.0000; +0.0000; 
+72.4284; -38.2965; -38.2545; +0.0000; +0.0000; +0.0000; 
+72.6318; -37.6749; -37.6298; +0.0000; +0.0000; +0.0000; 
+72.8353; -37.4332; -37.3784; +0.0000; +0.0000; +0.0000; 
+73.0387; -38.1986; -38.1459; +0.0000; +0.0000; +0.0000; 
+73.2422; -38.4790; -38.4339; +0.0000; +0.0000; +0.0000; 
+73.4456; -38.2684; -38.2215; +0.0000; +0.0000; +0.0000; 
+73.6491; -38.9993; -38.9506; +0.0000; +0.0000; +0.0000; 
+73.8525; -39.7691; -39.7251; +0.0000; +0.0000; +0.0000; 
+74.0560; -39.8648; -39.8241; +0.0000; +0.0000; +0.0000; 
+74.2594; -39.5129; -39.4657; +0.0000; +0.0000; +0.0000; 
+74.4629; -39.8829; -39.8298; +0.0000; +0.0000; +0.0000; 
+74.6663; -40.5627; -40.5121; +0.0000; +0.0000; +0.0000; 
+74.8698; -40.5229; -40.4726; +0.0000; +0.0000; +0.0000; 
+75.0732; -40.2922; -40.2401; +0.0000; +0.0000; +0.0000; 
+75.2767; -40.2785; -40.2219; +0.0000; +0.0000; +0.0000; 
+75.4801; -40.5752; -40.5166; +0.0000; +0.0000; +0.0000; 
+75.6836; -40.7998; -40.7425; +0.0000; +0.0000; +0.0000; 
+75.8870; -40.3975; -40.3376; +0.0000; +0.0000; +0.0000; 
+76.0905; -39.8854; -39.8196; +0.0000; +0.0000; +0.0000; 
+76.2939; -40.2589; -40.1958; +0.0000; +0.0000; +0.0000; 
+76.4974; -39.9398; -39.8768; +0.0000; +0.0000; +0.0000; 
+76.7008; -39.7915; -39.7238; +0.0000; +0.0000; +0.0000; 
+76.9043; -40.6647; -40.5989; +0.0000; +0.0000; +0.0000; 
+77.1077; -41.0398; -40.9795; +0.0000; +0.0000; +0.0000; 
+77.3112; -40.4128; -40.3497; +0.0000; +0.0000; +0.0000; 
+77.5146; -39.6571; -39.5850; +0.0000; +0.0000; +0.0000; 
+77.7181; -39.4713; -39.3921; +0.0000; +0.0000; +0.0000; 
+77.9215; -40.1652; -40.0904; +0.0000; +0.0000; +0.0000; 
+78.1250; -40.2705; -40.1999; +0.0000; +0.0000; +0.0000; 
+78.3285; -39.9301; -39.8584; +0.0000; +0.0000; +0.0000; 
+78.5319; -40.1564; -40.0871; +0.0000; +0.0000; +0.0000; 
+78.7354; -40.4617; -40.3968; +0.0000; +0.0000; +0.0000; 
+78.9388; -40.2386; -40.1672; +0.0000; +0.0000; +0.0000; 
+79.1423; -40.3105; -40.2348; +0.0000; +0.0000; +0.0000; 
+79.3457; -40.8797; -40.8088; +0.0000; +0.0000; +0.0000; 
+79.5492; -41.1814; -41.1145; +0.0000; +0.0000; +0.0000; 
+79.7526; -39.8420; -39.7646; +0.0000; +0.0000; +0.0000; 
+79.9561; -39.5129; -39.4288; +0.0000; +0.0000; +0.0000; 
+80.1595; -39.9169; -39.8337; +0.0000; +0.0000; +0.0000; 
+80.3630; -40.1167; -40.0363; +0.0000; +0.0000; +0.0000; 
+80.5664; -39.8745; -39.7926; +0.0000; +0.0000; +0.0000; 
+80.7699; -39.7512; -39.6684; +0.0000; +0.0000; +0.0000; 
+80.9733; -39.6752; -39.5914; +0.0000; +0.0000; +0.0000; 
+81.1768; -39.4738; -39.3879; +0.0000; +0.0000; +0.0000; 
+81.3802; -39.3559; -39.2661; +0.0000; +0.0000; +0.0000; 
+81.5837; -39.9136; -39.8282; +0.0000; +0.0000; +0.0000; 
+81.7871; -39.6072; -39.5206; +0.0000; +0.0000; +0.0000; 
+81.9906; -38.4421; -38.3424; +0.0000; +0.0000; +0.0000; 
+82.1940; -38.0491; -37.9433; +0.0000; +0.0000; +0.0000; 
+82.3975; -38.0512; -37.9453; +0.0000; +0.0000; +0.0000; 
+82.6009; -37.9750; -37.8697; +0.0000; +0.0000; +0.0000; 
+82.8044; -37.6517; -37.5442; +0.0000; +0.0000; +0.0000; 
+83.0078; -37.6063; -37.4981; +0.0000; +0.0000; +0.0000; 
+83.2113; -37.6199; -37.5121; +0.0000; +0.0000; +0.0000; 
+83.4147; -37.3575; -37.2471; +0.0000; +0.0000; +0.0000; 
+83.6182; -37.3091; -37.1975; +0.0000; +0.0000; +0.0000; 
+83.8216; -37.5732; -37.4657; +0.0000; +0.0000; +0.0000; 
+84.0251; -37.4886; -37.3826; +0.0000; +0.0000; +0.0000; 
+84.2285; -36.9444; -36.8305; +0.0000; +0.0000; +0.0000; 
+84.4320; -37.1814; -37.0682; +0.0000; +0.0000; +0.0000; 
+84.6354; -37.6097; -37.5037; +0.0000; +0.0000; +0.0000; 
+84.8389; -37.3802; -37.2744; +0.0000; +0.0000; +0.0000; 
+85.0423; -36.9654; -36.8540; +0.0000; +0.0000; +0.0000; 
+85.2458; -36.9554; -36.8425; +0.0000; +0.0000; +0.0000; 
+85.4492; -37.2748; -37.1668; +0.0000; +0.0000; +0.0000; 
+85.6527; -37.0658; -36.9554; +0.0000; +0.0000; +0.0000; 
+85.8561; -37.1179; -37.0056; +0.0000; +0.0000; +0.0000; 
+86.0596; -37.3759; -37.2696; +0.0000; +0.0000; +0.0000; 
+86.2630; -36.5904; -36.4762; +0.0000; +0.0000; +0.0000; 
+86.4665; -36.4116; -36.2915; +0.0000; +0.0000; +0.0000; 
+86.6699; -36.9096; -36.7971; +0.0000; +0.0000; +0.0000; 
+86.8734; -37.0948; -36.9901; +0.0000; +0.0000; +0.0000; 
+87.0768; -36.7313; -36.6246; +0.0000; +0.0000; +0.0000; 
+87.2803; -36.6647; -36.5524; +0.0000; +0.0000; +0.0000; 
+87.4837; -37.2977; -37.1911; +0.0000; +0.0000; +0.0000; 
+87.6872; -37.1239; -37.0173; +0.0000; +0.0000; +0.0000; 
+87.8906; -36.7739; -36.6602; +0.0000; +0.0000; +0.0000; 
+88.0941; -37.0041; -36.8939; +0.0000; +0.0000; +0.0000; 
+88.2975; -36.7126; -36.6028; +0.0000; +0.0000; +0.0000; 
+88.5010; -36.2459; -36.1279; +0.0000; +0.0000; +0.0000; 
+88.7044; -36.7005; -36.5865; +0.0000; +0.0000; +0.0000; 
+88.9079; -37.0611; -36.9542; +0.0000; +0.0000; +0.0000; 
+89.1113; -36.3274; -36.2140; +0.0000; +0.0000; +0.0000; 
+89.3148; -36.1343; -36.0139; +0.0000; +0.0000; +0.0000; 
+89.5182; -36.3629; -36.2445; +0.0000; +0.0000; +0.0000; 
+89.7217; -36.3574; -36.2419; +0.0000; +0.0000; +0.0000; 
+89.9251; -35.7876; -35.6645; +0.0000; +0.0000; +0.0000; 
+90.1286; -36.1252; -36.0080; +0.0000; +0.0000; +0.0000; 
+90.3320; -36.3875; -36.2782; +0.0000; +0.0000; +0.0000; 
+90.5355; -35.8525; -35.7344; +0.0000; +0.0000; +0.0000; 
+90.7389; -36.1946; -36.0802; +0.0000; +0.0000; +0.0000; 
+90.9424; -36.1740; -36.0624; +0.0000; +0.0000; +0.0000; 
+91.1458; -35.9826; -35.8703; +0.0000; +0.0000; +0.0000; 
+91.3493; -35.7598; -35.6435; +0.0000; +0.0000; +0.0000; 
+91.5527; -36.3250; -36.2148; +0.0000; +0.0000; +0.0000; 
+91.7562; -36.2238; -36.1183; +0.0000; +0.0000; +0.0000; 
+91.9596; -36.0050; -35.8940; +0.0000; +0.0000; +0.0000; 
+92.1631; -36.4014; -36.2960; +0.0000; +0.0000; +0.0000; 
+92.3665; -36.3579; -36.2551; +0.0000; +0.0000; +0.0000; 
+92.5700; -36.1934; -36.0895; +0.0000; +0.0000; +0.0000; 
+92.7734; -36.1243; -36.0161; +0.0000; +0.0000; +0.0000; 
+92.9769; -36.2691; -36.1644; +0.0000; +0.0000; +0.0000; 
+93.1803; -35.8633; -35.7539; +0.0000; +0.0000; +0.0000; 
+93.3838; -36.0499; -35.9423; +0.0000; +0.0000; +0.0000; 
+93.5872; -36.3564; -36.2536; +0.0000; +0.0000; +0.0000; 
+93.7907; -36.0139; -35.9095; +0.0000; +0.0000; +0.0000; 
+93.9941; -35.8209; -35.7118; +0.0000; +0.0000; +0.0000; 
+94.1976; -35.8362; -35.7282; +0.0000; +0.0000; +0.0000; 
+94.4010; -35.6043; -35.4995; +0.0000; +0.0000; +0.0000; 
+94.6045; -35.6756; -35.5712; +0.0000; +0.0000; +0.0000; 
+94.8079; -35.7751; -35.6742; +0.0000; +0.0000; +0.0000; 
+95.0114; -35.5007; -35.3996; +0.0000; +0.0000; +0.0000; 
+95.2148; -35.6061; -35.5106; +0.0000; +0.0000; +0.0000; 
+95.4183; -35.8739; -35.7832; +0.0000; +0.0000; +0.0000; 
+95.6217; -36.4006; -36.3190; +0.0000; +0.0000; +0.0000; 
+95.8252; -36.7025; -36.6132; +0.0000; +0.0000; +0.0000; 
+96.0286; -36.3920; -36.2927; +0.0000; +0.0000; +0.0000; 
+96.2321; -36.0907; -35.9970; +0.0000; +0.0000; +0.0000; 
+96.4355; -35.8700; -35.7741; +0.0000; +0.0000; +0.0000; 
+96.6390; -36.0366; -35.9443; +0.0000; +0.0000; +0.0000; 
+96.8424; -35.9823; -35.8925; +0.0000; +0.0000; +0.0000; 
+97.0459; -35.9505; -35.8600; +0.0000; +0.0000; +0.0000; 
+97.2493; -36.1683; -36.0819; +0.0000; +0.0000; +0.0000; 
+97.4528; -36.3860; -36.3027; +0.0000; +0.0000; +0.0000; 
+97.6563; -36.1570; -36.0744; +0.0000; +0.0000; +0.0000; 
+97.8597; -36.1944; -36.1059; +0.0000; +0.0000; +0.0000; 
+98.0632; -36.6591; -36.5775; +0.0000; +0.0000; +0.0000; 
+98.2666; -36.2421; -36.1580; +0.0000; +0.0000; +0.0000; 
+98.4701; -36.4244; -36.3402; +0.0000; +0.0000; +0.0000; 
+98.6735; -36.0601; -35.9760; +0.0000; +0.0000; +0.0000; 
+98.8770; -35.9986; -35.9088; +0.0000; +0.0000; +0.0000; 
+99.0804; -36.1183; -36.0320; +0.0000; +0.0000; +0.0000; 
+99.2839; -36.1927; -36.1113; +0.0000; +0.0000; +0.0000; 
+99.4873; -35.7092; -35.6286; +0.0000; +0.0000; +0.0000; 
+99.6908; -35.7389; -35.6510; +0.0000; +0.0000; +0.0000; 
+99.8942; -36.1789; -36.1033; +0.0000; +0.0000; +0.0000; 
+100.0977; -35.7306; -35.6544; +0.0000; +0.0000; +0.0000; 
+100.3011; -35.8738; -35.7980; +0.0000; +0.0000; +0.0000; 
+100.5046; -35.8074; -35.7347; +0.0000; +0.0000; +0.0000; 
+100.7080; -35.6935; -35.6221; +0.0000; +0.0000; +0.0000; 
+100.9115; -35.9647; -35.8958; +0.0000; +0.0000; +0.0000; 
+101.1149; -36.1460; -36.0848; +0.0000; +0.0000; +0.0000; 
+101.3184; -35.7031; -35.6385; +0.0000; +0.0000; +0.0000; 
+101.5218; -35.9930; -35.9278; +0.0000; +0.0000; +0.0000; 
+101.7253; -36.3959; -36.3432; +0.0000; +0.0000; +0.0000; 
+101.9287; -36.1186; -36.0667; +0.0000; +0.0000; +0.0000; 
+102.1322; -36.3355; -36.2822; +0.0000; +0.0000; +0.0000; 
+102.3356; -36.5225; -36.4762; +0.0000; +0.0000; +0.0000; 
+102.5391; -36.4088; -36.3607; +0.0000; +0.0000; +0.0000; 
+102.7425; -36.9018; -36.8560; +0.0000; +0.0000; +0.0000; 
+102.9460; -37.0794; -37.0395; +0.0000; +0.0000; +0.0000; 
+103.1494; -36.8587; -36.8161; +0.0000; +0.0000; +0.0000; 
+103.3529; -37.2577; -37.2163; +0.0000; +0.0000; +0.0000; 
+103.5563; -37.3196; -37.2813; +0.0000; +0.0000; +0.0000; 
+103.7598; -37.2179; -37.1770; +0.0000; +0.0000; +0.0000; 
+103.9632; -37.6475; -37.6082; +0.0000; +0.0000; +0.0000; 
+104.1667; -37.8298; -37.7964; +0.0000; +0.0000; +0.0000; 
+104.3701; -37.5621; -37.5239; +0.0000; +0.0000; +0.0000; 
+104.5736; -37.9917; -37.9551; +0.0000; +0.0000; +0.0000; 
+104.7770; -37.5926; -37.5528; +0.0000; +0.0000; +0.0000; 
+104.9805; -37.9261; -37.8853; +0.0000; +0.0000; +0.0000; 
+105.1839; -38.1915; -38.1551; +0.0000; +0.0000; +0.0000; 
+105.3874; -37.8653; -37.8297; +0.0000; +0.0000; +0.0000; 
+105.5908; -37.7305; -37.6882; +0.0000; +0.0000; +0.0000; 
+105.7943; -38.3731; -38.3379; +0.0000; +0.0000; +0.0000; 
+105.9977; -37.7938; -37.7564; +0.0000; +0.0000; +0.0000; 
+106.2012; -37.9695; -37.9311; +0.0000; +0.0000; +0.0000; 
+106.4046; -38.1789; -38.1461; +0.0000; +0.0000; +0.0000; 
+106.6081; -37.7874; -37.7511; +0.0000; +0.0000; +0.0000; 
+106.8115; -38.1537; -38.1166; +0.0000; +0.0000; +0.0000; 
+107.0150; -38.1502; -38.1187; +0.0000; +0.0000; +0.0000; 
+107.2184; -37.8027; -37.7659; +0.0000; +0.0000; +0.0000; 
+107.4219; -38.2246; -38.1904; +0.0000; +0.0000; +0.0000; 
+107.6253; -37.9602; -37.9296; +0.0000; +0.0000; +0.0000; 
+107.8288; -37.9555; -37.9191; +0.0000; +0.0000; +0.0000; 
+108.0322; -38.3403; -38.3080; +0.0000; +0.0000; +0.0000; 
+108.2357; -38.0059; -37.9783; +0.0000; +0.0000; +0.0000; 
+108.4391; -38.0675; -38.0338; +0.0000; +0.0000; +0.0000; 
+108.6426; -38.3583; -38.3317; +0.0000; +0.0000; +0.0000; 
+108.8460; -38.0007; -37.9743; +0.0000; +0.0000; +0.0000; 
+109.0495; -38.2441; -38.2143; +0.0000; +0.0000; +0.0000; 
+109.2529; -38.4101; -38.3889; +0.0000; +0.0000; +0.0000; 
+109.4564; -38.0921; -38.0651; +0.0000; +0.0000; +0.0000; 
+109.6598; -38.5626; -38.5380; +0.0000; +0.0000; +0.0000; 
+109.8633; -38.3453; -38.3256; +0.0000; +0.0000; +0.0000; 
+110.0667; -38.2738; -38.2497; +0.0000; +0.0000; +0.0000; 
+110.2702; -38.8049; -38.7837; +0.0000; +0.0000; +0.0000; 
+110.4736; -38.1231; -38.1070; +0.0000; +0.0000; +0.0000; 
+110.6771; -38.5209; -38.4997; +0.0000; +0.0000; +0.0000; 
+110.8805; -38.7596; -38.7444; +0.0000; +0.0000; +0.0000; 
+111.0840; -38.4790; -38.4640; +0.0000; +0.0000; +0.0000; 
+111.2874; -38.6709; -38.6536; +0.0000; +0.0000; +0.0000; 
+111.4909; -38.9463; -38.9352; +0.0000; +0.0000; +0.0000; 
+111.6943; -38.6066; -38.5936; +0.0000; +0.0000; +0.0000; 
+111.8978; -39.2460; -39.2364; +0.0000; +0.0000; +0.0000; 
+112.1012; -38.7794; -38.7720; +0.0000; +0.0000; +0.0000; 
+112.3047; -39.1377; -39.1267; +0.0000; +0.0000; +0.0000; 
+112.5081; -39.7179; -39.7133; +0.0000; +0.0000; +0.0000; 
+112.7116; -39.2407; -39.2361; +0.0000; +0.0000; +0.0000; 
+112.9150; -39.5756; -39.5666; +0.0000; +0.0000; +0.0000; 
+113.1185; -40.0003; -39.9957; +0.0000; +0.0000; +0.0000; 
+113.3219; -39.7524; -39.7496; +0.0000; +0.0000; +0.0000; 
+113.5254; -40.2071; -40.2013; +0.0000; +0.0000; +0.0000; 
+113.7288; -39.9425; -39.9423; +0.0000; +0.0000; +0.0000; 
+113.9323; -40.0355; -40.0275; +0.0000; +0.0000; +0.0000; 
+114.1357; -40.4341; -40.4315; +0.0000; +0.0000; +0.0000; 
+114.3392; -40.2141; -40.2111; +0.0000; +0.0000; +0.0000; 
+114.5426; -40.4347; -40.4281; +0.0000; +0.0000; +0.0000; 
+114.7461; -40.8879; -40.8859; +0.0000; +0.0000; +0.0000; 
+114.9495; -40.5511; -40.5473; +0.0000; +0.0000; +0.0000; 
+115.1530; -41.0596; -41.0563; +0.0000; +0.0000; +0.0000; 
+115.3564; -41.2914; -41.2888; +0.0000; +0.0000; +0.0000; 
+115.5599; -41.3105; -41.3065; +0.0000; +0.0000; +0.0000; 
+115.7633; -41.5813; -41.5765; +0.0000; +0.0000; +0.0000; 
+115.9668; -41.2791; -41.2730; +0.0000; +0.0000; +0.0000; 
+116.1702; -41.6954; -41.6871; +0.0000; +0.0000; +0.0000; 
+116.3737; -41.7397; -41.7309; +0.0000; +0.0000; +0.0000; 
+116.5771; -41.4576; -41.4465; +0.0000; +0.0000; +0.0000; 
+116.7806; -41.5299; -41.5167; +0.0000; +0.0000; +0.0000; 
+116.9840; -41.2275; -41.2130; +0.0000; +0.0000; +0.0000; 
+117.1875; -41.1248; -41.1106; +0.0000; +0.0000; +0.0000; 
+117.3910; -40.6502; -40.6359; +0.0000; +0.0000; +0.0000; 
+117.5944; -40.8102; -40.7969; +0.0000; +0.0000; +0.0000; 
+117.7979; -40.7218; -40.7112; +0.0000; +0.0000; +0.0000; 
+118.0013; -40.4156; -40.4038; +0.0000; +0.0000; +0.0000; 
+118.2048; -41.1230; -41.1128; +0.0000; +0.0000; +0.0000; 
+118.4082; -40.7714; -40.7630; +0.0000; +0.0000; +0.0000; 
+118.6117; -40.8773; -40.8649; +0.0000; +0.0000; +0.0000; 
+118.8151; -41.2363; -41.2283; +0.0000; +0.0000; +0.0000; 
+119.0186; -40.8603; -40.8512; +0.0000; +0.0000; +0.0000; 
+119.2220; -41.5215; -41.5100; +0.0000; +0.0000; +0.0000; 
+119.4255; -41.0488; -41.0440; +0.0000; +0.0000; +0.0000; 
+119.6289; -41.2432; -41.2307; +0.0000; +0.0000; +0.0000; 
+119.8324; -41.3218; -41.3137; +0.0000; +0.0000; +0.0000; 
+120.0358; -40.6893; -40.6790; +0.0000; +0.0000; +0.0000; 
+120.2393; -41.9965; -41.9841; +0.0000; +0.0000; +0.0000; 
+120.4427; -41.5377; -41.5293; +0.0000; +0.0000; +0.0000; 
+120.6462; -41.2984; -41.2832; +0.0000; +0.0000; +0.0000; 
+120.8496; -41.6673; -41.6544; +0.0000; +0.0000; +0.0000; 
+121.0531; -40.9307; -40.9171; +0.0000; +0.0000; +0.0000; 
+121.2565; -41.2927; -41.2750; +0.0000; +0.0000; +0.0000; 
+121.4600; -41.0031; -40.9905; +0.0000; +0.0000; +0.0000; 
+121.6634; -40.6699; -40.6514; +0.0000; +0.0000; +0.0000; 
+121.8669; -41.0225; -41.0081; +0.0000; +0.0000; +0.0000; 
+122.0703; -40.0189; -40.0037; +0.0000; +0.0000; +0.0000; 
+122.2738; -40.4354; -40.4169; +0.0000; +0.0000; +0.0000; 
+122.4772; -40.3566; -40.3441; +0.0000; +0.0000; +0.0000; 
+122.6807; -39.8429; -39.8273; +0.0000; +0.0000; +0.0000; 
+122.8841; -40.0548; -40.0416; +0.0000; +0.0000; +0.0000; 
+123.0876; -39.7155; -39.7060; +0.0000; +0.0000; +0.0000; 
+123.2910; -39.5582; -39.5485; +0.0000; +0.0000; +0.0000; 
+123.4945; -39.4469; -39.4388; +0.0000; +0.0000; +0.0000; 
+123.6979; -39.3301; -39.3228; +0.0000; +0.0000; +0.0000; 
+123.9014; -39.3801; -39.3781; +0.0000; +0.0000; +0.0000; 
+124.1048; -39.0968; -39.0967; +0.0000; +0.0000; +0.0000; 
+124.3083; -39.2390; -39.2424; +0.0000; +0.0000; +0.0000; 
+124.5117; -38.9543; -38.9600; +0.0000; +0.0000; +0.0000; 
+124.7152; -39.2900; -39.2997; +0.0000; +0.0000; +0.0000; 
+124.9186; -38.9355; -38.9475; +0.0000; +0.0000; +0.0000; 
+125.1221; -39.4256; -39.4385; +0.0000; +0.0000; +0.0000; 
+125.3255; -39.4077; -39.4263; +0.0000; +0.0000; +0.0000; 
+125.5290; -39.3956; -39.4152; +0.0000; +0.0000; +0.0000; 
+125.7324; -39.5664; -39.5905; +0.0000; +0.0000; +0.0000; 
+125.9359; -39.7805; -39.8077; +0.0000; +0.0000; +0.0000; 
+126.1393; -40.2557; -40.2823; +0.0000; +0.0000; +0.0000; 
+126.3428; -40.5711; -40.6017; +0.0000; +0.0000; +0.0000; 
+126.5462; -40.9440; -40.9692; +0.0000; +0.0000; +0.0000; 
+126.7497; -41.6111; -41.6358; +0.0000; +0.0000; +0.0000; 
+126.9531; -41.9557; -41.9784; +0.0000; +0.0000; +0.0000; 
+127.1566; -42.1456; -42.1642; +0.0000; +0.0000; +0.0000; 
+127.3600; -42.0420; -42.0595; +0.0000; +0.0000; +0.0000; 
+127.5635; -42.5743; -42.5879; +0.0000; +0.0000; +0.0000; 
+127.7669; -41.7336; -41.7482; +0.0000; +0.0000; +0.0000; 
+127.9704; -41.9195; -41.9308; +0.0000; +0.0000; +0.0000; 
+128.1738; -41.7470; -41.7615; +0.0000; +0.0000; +0.0000; 
+128.3773; -41.1946; -41.2078; +0.0000; +0.0000; +0.0000; 
+128.5807; -41.8248; -41.8401; +0.0000; +0.0000; +0.0000; 
+128.7842; -40.8673; -40.8874; +0.0000; +0.0000; +0.0000; 
+128.9876; -41.2914; -41.3080; +0.0000; +0.0000; +0.0000; 
+129.1911; -41.1418; -41.1659; +0.0000; +0.0000; +0.0000; 
+129.3945; -41.1186; -41.1376; +0.0000; +0.0000; +0.0000; 
+129.5980; -41.5148; -41.5413; +0.0000; +0.0000; +0.0000; 
+129.8014; -40.9180; -40.9448; +0.0000; +0.0000; +0.0000; 
+130.0049; -42.0598; -42.0845; +0.0000; +0.0000; +0.0000; 
+130.2083; -41.5972; -41.6270; +0.0000; +0.0000; +0.0000; 
+130.4118; -42.1994; -42.2226; +0.0000; +0.0000; +0.0000; 
+130.6152; -42.2936; -42.3207; +0.0000; +0.0000; +0.0000; 
+130.8187; -42.4601; -42.4838; +0.0000; +0.0000; +0.0000; 
+131.0221; -42.6914; -42.7173; +0.0000; +0.0000; +0.0000; 
+131.2256; -42.2451; -42.2675; +0.0000; +0.0000; +0.0000; 
+131.4290; -43.0207; -43.0421; +0.0000; +0.0000; +0.0000; 
+131.6325; -42.5190; -42.5407; +0.0000; +0.0000; +0.0000; 
+131.8359; -43.0498; -43.0685; +0.0000; +0.0000; +0.0000; 
+132.0394; -42.6176; -42.6403; +0.0000; +0.0000; +0.0000; 
+132.2428; -43.1028; -43.1176; +0.0000; +0.0000; +0.0000; 
+132.4463; -42.7881; -42.8075; +0.0000; +0.0000; +0.0000; 
+132.6497; -42.3922; -42.4074; +0.0000; +0.0000; +0.0000; 
+132.8532; -42.8512; -42.8665; +0.0000; +0.0000; +0.0000; 
+133.0566; -41.9289; -41.9465; +0.0000; +0.0000; +0.0000; 
+133.2601; -42.4840; -42.4983; +0.0000; +0.0000; +0.0000; 
+133.4635; -41.6116; -41.6294; +0.0000; +0.0000; +0.0000; 
+133.6670; -41.4654; -41.4810; +0.0000; +0.0000; +0.0000; 
+133.8704; -41.4824; -41.5035; +0.0000; +0.0000; +0.0000; 
+134.0739; -41.2126; -41.2317; +0.0000; +0.0000; +0.0000; 
+134.2773; -41.1342; -41.1587; +0.0000; +0.0000; +0.0000; 
+134.4808; -40.6804; -40.7060; +0.0000; +0.0000; +0.0000; 
+134.6842; -40.9320; -40.9585; +0.0000; +0.0000; +0.0000; 
+134.8877; -40.6656; -40.6965; +0.0000; +0.0000; +0.0000; 
+135.0911; -40.5888; -40.6239; +0.0000; +0.0000; +0.0000; 
+135.2946; -40.5098; -40.5476; +0.0000; +0.0000; +0.0000; 
+135.4980; -40.5290; -40.5680; +0.0000; +0.0000; +0.0000; 
+135.7015; -40.4648; -40.5079; +0.0000; +0.0000; +0.0000; 
+135.9049; -40.6007; -40.6456; +0.0000; +0.0000; +0.0000; 
+136.1084; -40.4445; -40.4951; +0.0000; +0.0000; +0.0000; 
+136.3118; -40.7565; -40.8060; +0.0000; +0.0000; +0.0000; 
+136.5153; -41.1239; -41.1772; +0.0000; +0.0000; +0.0000; 
+136.7188; -41.4663; -41.5157; +0.0000; +0.0000; +0.0000; 
+136.9222; -41.7540; -41.8063; +0.0000; +0.0000; +0.0000; 
+137.1257; -42.0327; -42.0814; +0.0000; +0.0000; +0.0000; 
+137.3291; -42.2842; -42.3324; +0.0000; +0.0000; +0.0000; 
+137.5326; -41.9078; -41.9581; +0.0000; +0.0000; +0.0000; 
+137.7360; -42.6021; -42.6481; +0.0000; +0.0000; +0.0000; 
+137.9395; -42.1380; -42.1891; +0.0000; +0.0000; +0.0000; 
+138.1429; -42.3438; -42.3928; +0.0000; +0.0000; +0.0000; 
+138.3464; -42.3564; -42.4074; +0.0000; +0.0000; +0.0000; 
+138.5498; -42.5738; -42.6217; +0.0000; +0.0000; +0.0000; 
+138.7533; -42.2787; -42.3310; +0.0000; +0.0000; +0.0000; 
+138.9567; -42.4699; -42.5211; +0.0000; +0.0000; +0.0000; 
+139.1602; -42.5832; -42.6356; +0.0000; +0.0000; +0.0000; 
+139.3636; -42.4689; -42.5214; +0.0000; +0.0000; +0.0000; 
+139.5671; -42.7814; -42.8341; +0.0000; +0.0000; +0.0000; 
+139.7705; -42.7805; -42.8338; +0.0000; +0.0000; +0.0000; 
+139.9740; -43.0186; -43.0705; +0.0000; +0.0000; +0.0000; 
+140.1774; -42.7838; -42.8378; +0.0000; +0.0000; +0.0000; 
+140.3809; -43.4217; -43.4724; +0.0000; +0.0000; +0.0000; 
+140.5843; -42.7384; -42.7940; +0.0000; +0.0000; +0.0000; 
+140.7878; -43.1854; -43.2394; +0.0000; +0.0000; +0.0000; 
+140.9912; -43.0547; -43.1106; +0.0000; +0.0000; +0.0000; 
+141.1947; -43.4810; -43.5340; +0.0000; +0.0000; +0.0000; 
+141.3981; -43.3379; -43.3936; +0.0000; +0.0000; +0.0000; 
+141.6016; -43.5439; -43.5990; +0.0000; +0.0000; +0.0000; 
+141.8050; -43.7937; -43.8475; +0.0000; +0.0000; +0.0000; 
+142.0085; -44.3750; -44.4259; +0.0000; +0.0000; +0.0000; 
+142.2119; -44.2841; -44.3363; +0.0000; +0.0000; +0.0000; 
+142.4154; -44.5149; -44.5656; +0.0000; +0.0000; +0.0000; 
+142.6188; -44.9352; -44.9841; +0.0000; +0.0000; +0.0000; 
+142.8223; -45.1068; -45.1546; +0.0000; +0.0000; +0.0000; 
+143.0257; -44.8729; -44.9223; +0.0000; +0.0000; +0.0000; 
+143.2292; -45.4478; -45.4940; +0.0000; +0.0000; +0.0000; 
+143.4326; -45.9506; -45.9942; +0.0000; +0.0000; +0.0000; 
+143.6361; -46.6090; -46.6492; +0.0000; +0.0000; +0.0000; 
+143.8395; -47.2864; -47.3233; +0.0000; +0.0000; +0.0000; 
+144.0430; -47.5628; -47.5988; +0.0000; +0.0000; +0.0000; 
+144.2464; -48.4089; -48.4413; +0.0000; +0.0000; +0.0000; 
+144.4499; -48.7692; -48.7999; +0.0000; +0.0000; +0.0000; 
+144.6533; -49.2107; -49.2400; +0.0000; +0.0000; +0.0000; 
+144.8568; -49.9897; -50.0169; +0.0000; +0.0000; +0.0000; 
+145.0602; -50.9647; -50.9887; +0.0000; +0.0000; +0.0000; 
+145.2637; -50.7479; -50.7724; +0.0000; +0.0000; +0.0000; 
+145.4671; -52.6832; -52.7027; +0.0000; +0.0000; +0.0000; 
+145.6706; -52.8903; -52.9097; +0.0000; +0.0000; +0.0000; 
+145.8740; -54.0274; -54.0441; +0.0000; +0.0000; +0.0000; 
+146.0775; -54.3484; -54.3645; +0.0000; +0.0000; +0.0000; 
+146.2809; -55.2852; -55.3000; +0.0000; +0.0000; +0.0000; 
+146.4844; -55.3148; -55.3296; +0.0000; +0.0000; +0.0000; 
+146.6878; -56.7394; -56.7520; +0.0000; +0.0000; +0.0000; 
+146.8913; -56.9065; -56.9188; +0.0000; +0.0000; +0.0000; 
+147.0947; -56.6733; -56.6856; +0.0000; +0.0000; +0.0000; 
+147.2982; -58.0689; -58.0795; +0.0000; +0.0000; +0.0000; 
+147.5016; -58.6977; -58.7073; +0.0000; +0.0000; +0.0000; 
+147.7051; -57.9737; -57.9840; +0.0000; +0.0000; +0.0000; 
+147.9085; -58.1376; -58.1477; +0.0000; +0.0000; +0.0000; 
+148.1120; -57.4666; -57.4780; +0.0000; +0.0000; +0.0000; 
+148.3154; -59.3247; -59.3335; +0.0000; +0.0000; +0.0000; 
+148.5189; -59.2247; -59.2328; +0.0000; +0.0000; +0.0000; 
+148.7223; -58.2376; -58.2460; +0.0000; +0.0000; +0.0000; 
+148.9258; -58.1075; -58.1176; +0.0000; +0.0000; +0.0000; 
+149.1292; -58.6897; -58.6980; +0.0000; +0.0000; +0.0000; 
+149.3327; -59.4775; -59.4836; +0.0000; +0.0000; +0.0000; 
+149.5361; -58.0280; -58.0361; +0.0000; +0.0000; +0.0000; 
+149.7396; -58.3971; -58.4053; +0.0000; +0.0000; +0.0000; 
+149.9430; -59.2386; -59.2441; +0.0000; +0.0000; +0.0000; 
+150.1465; -58.6550; -58.6627; +0.0000; +0.0000; +0.0000; 
+150.3499; -58.1028; -58.1102; +0.0000; +0.0000; +0.0000; 
+150.5534; -58.0489; -58.0561; +0.0000; +0.0000; +0.0000; 
+150.7568; -59.4889; -59.4926; +0.0000; +0.0000; +0.0000; 
+150.9603; -57.3634; -57.3713; +0.0000; +0.0000; +0.0000; 
+151.1637; -57.7976; -57.8041; +0.0000; +0.0000; +0.0000; 
+151.3672; -57.9462; -57.9536; +0.0000; +0.0000; +0.0000; 
+151.5706; -59.1959; -59.2001; +0.0000; +0.0000; +0.0000; 
+151.7741; -56.3459; -56.3525; +0.0000; +0.0000; +0.0000; 
+151.9775; -57.5868; -57.5921; +0.0000; +0.0000; +0.0000; 
+152.1810; -58.9280; -58.9340; +0.0000; +0.0000; +0.0000; 
+152.3844; -59.3586; -59.3625; +0.0000; +0.0000; +0.0000; 
+152.5879; -58.5816; -58.5854; +0.0000; +0.0000; +0.0000; 
+152.7913; -59.0120; -59.0161; +0.0000; +0.0000; +0.0000; 
+152.9948; -57.1260; -57.1309; +0.0000; +0.0000; +0.0000; 
+153.1982; -60.0639; -60.0648; +0.0000; +0.0000; +0.0000; 
+153.4017; -58.6815; -58.6839; +0.0000; +0.0000; +0.0000; 
+153.6051; -58.3162; -58.3182; +0.0000; +0.0000; +0.0000; 
+153.8086; -58.4734; -58.4759; +0.0000; +0.0000; +0.0000; 
+154.0120; -57.7760; -57.7761; +0.0000; +0.0000; +0.0000; 
+154.2155; -57.3982; -57.4009; +0.0000; +0.0000; +0.0000; 
+154.4189; -57.1213; -57.1238; +0.0000; +0.0000; +0.0000; 
+154.6224; -58.1477; -58.1492; +0.0000; +0.0000; +0.0000; 
+154.8258; -58.6786; -58.6804; +0.0000; +0.0000; +0.0000; 
+155.0293; -57.6528; -57.6533; +0.0000; +0.0000; +0.0000; 
+155.2327; -57.0989; -57.0988; +0.0000; +0.0000; +0.0000; 
+155.4362; -58.3838; -58.3862; +0.0000; +0.0000; +0.0000; 
+155.6396; -57.8237; -57.8240; +0.0000; +0.0000; +0.0000; 
+155.8431; -59.0185; -59.0181; +0.0000; +0.0000; +0.0000; 
+156.0465; -57.3051; -57.3039; +0.0000; +0.0000; +0.0000; 
+156.2500; -56.4514; -56.4513; +0.0000; +0.0000; +0.0000; 
+156.4535; -57.6804; -57.6814; +0.0000; +0.0000; +0.0000; 
+156.6569; -57.3795; -57.3810; +0.0000; +0.0000; +0.0000; 
+156.8604; -58.0388; -58.0382; +0.0000; +0.0000; +0.0000; 
+157.0638; -56.6173; -56.6170; +0.0000; +0.0000; +0.0000; 
+157.2673; -56.2368; -56.2352; +0.0000; +0.0000; +0.0000; 
+157.4707; -57.0089; -57.0087; +0.0000; +0.0000; +0.0000; 
+157.6742; -55.8337; -55.8314; +0.0000; +0.0000; +0.0000; 
+157.8776; -55.9049; -55.9024; +0.0000; +0.0000; +0.0000; 
+158.0811; -55.9258; -55.9246; +0.0000; +0.0000; +0.0000; 
+158.2845; -55.7971; -55.7958; +0.0000; +0.0000; +0.0000; 
+158.4880; -56.1934; -56.1914; +0.0000; +0.0000; +0.0000; 
+158.6914; -55.6539; -55.6521; +0.0000; +0.0000; +0.0000; 
+158.8949; -54.8964; -54.8955; +0.0000; +0.0000; +0.0000; 
+159.0983; -56.4802; -56.4812; +0.0000; +0.0000; +0.0000; 
+159.3018; -55.7156; -55.7157; +0.0000; +0.0000; +0.0000; 
+159.5052; -56.3657; -56.3655; +0.0000; +0.0000; +0.0000; 
+159.7087; -56.2437; -56.2426; +0.0000; +0.0000; +0.0000; 
+159.9121; -56.0054; -56.0049; +0.0000; +0.0000; +0.0000; 
+160.1156; -55.5035; -55.5042; +0.0000; +0.0000; +0.0000; 
+160.3190; -55.9673; -55.9674; +0.0000; +0.0000; +0.0000; 
+160.5225; -57.0324; -57.0313; +0.0000; +0.0000; +0.0000; 
+160.7259; -55.2688; -55.2640; +0.0000; +0.0000; +0.0000; 
+160.9294; -56.3093; -56.3046; +0.0000; +0.0000; +0.0000; 
+161.1328; -54.8783; -54.8738; +0.0000; +0.0000; +0.0000; 
+161.3363; -55.8852; -55.8814; +0.0000; +0.0000; +0.0000; 
+161.5397; -55.9418; -55.9357; +0.0000; +0.0000; +0.0000; 
+161.7432; -55.1866; -55.1817; +0.0000; +0.0000; +0.0000; 
+161.9466; -54.3154; -54.3080; +0.0000; +0.0000; +0.0000; 
+162.1501; -54.1436; -54.1385; +0.0000; +0.0000; +0.0000; 
+162.3535; -53.0810; -53.0736; +0.0000; +0.0000; +0.0000; 
+162.5570; -53.6669; -53.6610; +0.0000; +0.0000; +0.0000; 
+162.7604; -52.6033; -52.5967; +0.0000; +0.0000; +0.0000; 
+162.9639; -52.1346; -52.1290; +0.0000; +0.0000; +0.0000; 
+163.1673; -51.7173; -51.7112; +0.0000; +0.0000; +0.0000; 
+163.3708; -51.7996; -51.7937; +0.0000; +0.0000; +0.0000; 
+163.5742; -52.0279; -52.0199; +0.0000; +0.0000; +0.0000; 
+163.7777; -51.4504; -51.4455; +0.0000; +0.0000; +0.0000; 
+163.9811; -51.3207; -51.3131; +0.0000; +0.0000; +0.0000; 
+164.1846; -51.1771; -51.1734; +0.0000; +0.0000; +0.0000; 
+164.3880; -52.9621; -52.9604; +0.0000; +0.0000; +0.0000; 
+164.5915; -51.7310; -51.7266; +0.0000; +0.0000; +0.0000; 
+164.7949; -51.6045; -51.6027; +0.0000; +0.0000; +0.0000; 
+164.9984; -50.9597; -50.9550; +0.0000; +0.0000; +0.0000; 
+165.2018; -50.9314; -50.9289; +0.0000; +0.0000; +0.0000; 
+165.4053; -50.4260; -50.4235; +0.0000; +0.0000; +0.0000; 
+165.6087; -50.8820; -50.8812; +0.0000; +0.0000; +0.0000; 
+165.8122; -50.7745; -50.7715; +0.0000; +0.0000; +0.0000; 
+166.0156; -51.1706; -51.1694; +0.0000; +0.0000; +0.0000; 
+166.2191; -50.9713; -50.9673; +0.0000; +0.0000; +0.0000; 
+166.4225; -49.7430; -49.7413; +0.0000; +0.0000; +0.0000; 
+166.6260; -50.1202; -50.1207; +0.0000; +0.0000; +0.0000; 
+166.8294; -50.5848; -50.5862; +0.0000; +0.0000; +0.0000; 
+167.0329; -50.5771; -50.5785; +0.0000; +0.0000; +0.0000; 
+167.2363; -49.9357; -49.9382; +0.0000; +0.0000; +0.0000; 
+167.4398; -50.3139; -50.3165; +0.0000; +0.0000; +0.0000; 
+167.6432; -49.2429; -49.2441; +0.0000; +0.0000; +0.0000; 
+167.8467; -50.0093; -50.0145; +0.0000; +0.0000; +0.0000; 
+168.0501; -49.9077; -49.9112; +0.0000; +0.0000; +0.0000; 
+168.2536; -49.8501; -49.8542; +0.0000; +0.0000; +0.0000; 
+168.4570; -50.7091; -50.7143; +0.0000; +0.0000; +0.0000; 
+168.6605; -50.7478; -50.7539; +0.0000; +0.0000; +0.0000; 
+168.8639; -50.2638; -50.2697; +0.0000; +0.0000; +0.0000; 
+169.0674; -49.8578; -49.8648; +0.0000; +0.0000; +0.0000; 
+169.2708; -50.4899; -50.4963; +0.0000; +0.0000; +0.0000; 
+169.4743; -49.7891; -49.7956; +0.0000; +0.0000; +0.0000; 
+169.6777; -50.0699; -50.0774; +0.0000; +0.0000; +0.0000; 
+169.8812; -50.4840; -50.4904; +0.0000; +0.0000; +0.0000; 
+170.0846; -49.9895; -49.9976; +0.0000; +0.0000; +0.0000; 
+170.2881; -50.4592; -50.4676; +0.0000; +0.0000; +0.0000; 
+170.4915; -50.0865; -50.0970; +0.0000; +0.0000; +0.0000; 
+170.6950; -50.8332; -50.8419; +0.0000; +0.0000; +0.0000; 
+170.8984; -50.1057; -50.1161; +0.0000; +0.0000; +0.0000; 
+171.1019; -50.1406; -50.1511; +0.0000; +0.0000; +0.0000; 
+171.3053; -49.8516; -49.8636; +0.0000; +0.0000; +0.0000; 
+171.5088; -49.9585; -49.9703; +0.0000; +0.0000; +0.0000; 
+171.7122; -50.2414; -50.2545; +0.0000; +0.0000; +0.0000; 
+171.9157; -50.4387; -50.4524; +0.0000; +0.0000; +0.0000; 
+172.1191; -51.0222; -51.0344; +0.0000; +0.0000; +0.0000; 
+172.3226; -51.2025; -51.2154; +0.0000; +0.0000; +0.0000; 
+172.5260; -51.5525; -51.5646; +0.0000; +0.0000; +0.0000; 
+172.7295; -50.8613; -50.8745; +0.0000; +0.0000; +0.0000; 
+172.9329; -50.6964; -50.7087; +0.0000; +0.0000; +0.0000; 
+173.1364; -50.4641; -50.4793; +0.0000; +0.0000; +0.0000; 
+173.3398; -50.8551; -50.8691; +0.0000; +0.0000; +0.0000; 
+173.5433; -50.8053; -50.8205; +0.0000; +0.0000; +0.0000; 
+173.7467; -51.8719; -51.8871; +0.0000; +0.0000; +0.0000; 
+173.9502; -51.8789; -51.8938; +0.0000; +0.0000; +0.0000; 
+174.1536; -52.2255; -52.2384; +0.0000; +0.0000; +0.0000; 
+174.3571; -51.6445; -51.6583; +0.0000; +0.0000; +0.0000; 
+174.5605; -51.8497; -51.8637; +0.0000; +0.0000; +0.0000; 
+174.7640; -52.0593; -52.0741; +0.0000; +0.0000; +0.0000; 
+174.9674; -51.4130; -51.4283; +0.0000; +0.0000; +0.0000; 
+175.1709; -52.8139; -52.8292; +0.0000; +0.0000; +0.0000; 
+175.3743; -54.4091; -54.4215; +0.0000; +0.0000; +0.0000; 
+175.5778; -53.5206; -53.5317; +0.0000; +0.0000; +0.0000; 
+175.7813; -53.2766; -53.2894; +0.0000; +0.0000; +0.0000; 
+175.9847; -53.5844; -53.5959; +0.0000; +0.0000; +0.0000; 
+176.1882; -52.5201; -52.5328; +0.0000; +0.0000; +0.0000; 
+176.3916; -52.6075; -52.6217; +0.0000; +0.0000; +0.0000; 
+176.5951; -52.4819; -52.4955; +0.0000; +0.0000; +0.0000; 
+176.7985; -54.2481; -54.2613; +0.0000; +0.0000; +0.0000; 
+177.0020; -53.8442; -53.8578; +0.0000; +0.0000; +0.0000; 
+177.2054; -54.5744; -54.5857; +0.0000; +0.0000; +0.0000; 
+177.4089; -54.7830; -54.7942; +0.0000; +0.0000; +0.0000; 
+177.6123; -53.9978; -54.0098; +0.0000; +0.0000; +0.0000; 
+177.8158; -53.5773; -53.5901; +0.0000; +0.0000; +0.0000; 
+178.0192; -55.1380; -55.1486; +0.0000; +0.0000; +0.0000; 
+178.2227; -53.9138; -53.9269; +0.0000; +0.0000; +0.0000; 
+178.4261; -54.5901; -54.6033; +0.0000; +0.0000; +0.0000; 
+178.6296; -55.6346; -55.6461; +0.0000; +0.0000; +0.0000; 
+178.8330; -55.8361; -55.8473; +0.0000; +0.0000; +0.0000; 
+179.0365; -55.6282; -55.6399; +0.0000; +0.0000; +0.0000; 
+179.2399; -56.0449; -56.0544; +0.0000; +0.0000; +0.0000; 
+179.4434; -57.8907; -57.8981; +0.0000; +0.0000; +0.0000; 
+179.6468; -56.3396; -56.3475; +0.0000; +0.0000; +0.0000; 
+179.8503; -56.9716; -56.9800; +0.0000; +0.0000; +0.0000; 
+180.0537; -56.1872; -56.1960; +0.0000; +0.0000; +0.0000; 
+180.2572; -56.7208; -56.7303; +0.0000; +0.0000; +0.0000; 
+180.4606; -56.8859; -56.8940; +0.0000; +0.0000; +0.0000; 
+180.6641; -56.9922; -57.0003; +0.0000; +0.0000; +0.0000; 
+180.8675; -57.3470; -57.3551; +0.0000; +0.0000; +0.0000; 
+181.0710; -57.2383; -57.2442; +0.0000; +0.0000; +0.0000; 
+181.2744; -58.2292; -58.2329; +0.0000; +0.0000; +0.0000; 
+181.4779; -57.6519; -57.6575; +0.0000; +0.0000; +0.0000; 
+181.6813; -56.2946; -56.3014; +0.0000; +0.0000; +0.0000; 
+181.8848; -55.8278; -55.8327; +0.0000; +0.0000; +0.0000; 
+182.0882; -57.3757; -57.3812; +0.0000; +0.0000; +0.0000; 
+182.2917; -57.0178; -57.0243; +0.0000; +0.0000; +0.0000; 
+182.4951; -56.7083; -56.7150; +0.0000; +0.0000; +0.0000; 
+182.6986; -56.1133; -56.1217; +0.0000; +0.0000; +0.0000; 
+182.9020; -58.9062; -58.9091; +0.0000; +0.0000; +0.0000; 
+183.1055; -58.4163; -58.4210; +0.0000; +0.0000; +0.0000; 
+183.3089; -57.8488; -57.8521; +0.0000; +0.0000; +0.0000; 
+183.5124; -56.8908; -56.8952; +0.0000; +0.0000; +0.0000; 
+183.7158; -57.8561; -57.8604; +0.0000; +0.0000; +0.0000; 
+183.9193; -56.7111; -56.7155; +0.0000; +0.0000; +0.0000; 
+184.1227; -56.7330; -56.7385; +0.0000; +0.0000; +0.0000; 
+184.3262; -56.1123; -56.1192; +0.0000; +0.0000; +0.0000; 
+184.5296; -56.9409; -56.9471; +0.0000; +0.0000; +0.0000; 
+184.7331; -56.4323; -56.4383; +0.0000; +0.0000; +0.0000; 
+184.9365; -56.2888; -56.2953; +0.0000; +0.0000; +0.0000; 
+185.1400; -56.6023; -56.6082; +0.0000; +0.0000; +0.0000; 
+185.3434; -57.7274; -57.7322; +0.0000; +0.0000; +0.0000; 
+185.5469; -56.9400; -56.9448; +0.0000; +0.0000; +0.0000; 
+185.7503; -56.9318; -56.9357; +0.0000; +0.0000; +0.0000; 
+185.9538; -56.9841; -56.9883; +0.0000; +0.0000; +0.0000; 
+186.1572; -57.1152; -57.1183; +0.0000; +0.0000; +0.0000; 
+186.3607; -55.9637; -55.9671; +0.0000; +0.0000; +0.0000; 
+186.5641; -55.8373; -55.8420; +0.0000; +0.0000; +0.0000; 
+186.7676; -56.1158; -56.1207; +0.0000; +0.0000; +0.0000; 
+186.9710; -55.3431; -55.3472; +0.0000; +0.0000; +0.0000; 
+187.1745; -56.5470; -56.5517; +0.0000; +0.0000; +0.0000; 
+187.3779; -55.3496; -55.3554; +0.0000; +0.0000; +0.0000; 
+187.5814; -55.7030; -55.7099; +0.0000; +0.0000; +0.0000; 
+187.7848; -56.3867; -56.3917; +0.0000; +0.0000; +0.0000; 
+187.9883; -55.1846; -55.1917; +0.0000; +0.0000; +0.0000; 
+188.1917; -55.9587; -55.9637; +0.0000; +0.0000; +0.0000; 
+188.3952; -56.3357; -56.3410; +0.0000; +0.0000; +0.0000; 
+188.5986; -56.4161; -56.4215; +0.0000; +0.0000; +0.0000; 
+188.8021; -55.9056; -55.9111; +0.0000; +0.0000; +0.0000; 
+189.0055; -56.5760; -56.5816; +0.0000; +0.0000; +0.0000; 
+189.2090; -55.4464; -55.4511; +0.0000; +0.0000; +0.0000; 
+189.4124; -55.8778; -55.8837; +0.0000; +0.0000; +0.0000; 
+189.6159; -56.0915; -56.0958; +0.0000; +0.0000; +0.0000; 
+189.8193; -55.3491; -55.3557; +0.0000; +0.0000; +0.0000; 
+190.0228; -55.2189; -55.2244; +0.0000; +0.0000; +0.0000; 
+190.2262; -56.3793; -56.3849; +0.0000; +0.0000; +0.0000; 
+190.4297; -54.9413; -54.9483; +0.0000; +0.0000; +0.0000; 
+190.6331; -55.6364; -55.6435; +0.0000; +0.0000; +0.0000; 
+190.8366; -55.9024; -55.9082; +0.0000; +0.0000; +0.0000; 
+191.0400; -55.8920; -55.8987; +0.0000; +0.0000; +0.0000; 
+191.2435; -55.6583; -55.6640; +0.0000; +0.0000; +0.0000; 
+191.4469; -57.2633; -57.2695; +0.0000; +0.0000; +0.0000; 
+191.6504; -56.4501; -56.4571; +0.0000; +0.0000; +0.0000; 
+191.8538; -56.6647; -56.6701; +0.0000; +0.0000; +0.0000; 
+192.0573; -56.5891; -56.5951; +0.0000; +0.0000; +0.0000; 
+192.2607; -56.9871; -56.9927; +0.0000; +0.0000; +0.0000; 
+192.4642; -56.2637; -56.2676; +0.0000; +0.0000; +0.0000; 
+192.6676; -56.8591; -56.8645; +0.0000; +0.0000; +0.0000; 
+192.8711; -56.5986; -56.6027; +0.0000; +0.0000; +0.0000; 
+193.0745; -56.1742; -56.1776; +0.0000; +0.0000; +0.0000; 
+193.2780; -56.3629; -56.3687; +0.0000; +0.0000; +0.0000; 
+193.4814; -55.8297; -55.8350; +0.0000; +0.0000; +0.0000; 
+193.6849; -56.2401; -56.2438; +0.0000; +0.0000; +0.0000; 
+193.8883; -55.6976; -55.7027; +0.0000; +0.0000; +0.0000; 
+194.0918; -55.8909; -55.8962; +0.0000; +0.0000; +0.0000; 
+194.2952; -55.7337; -55.7388; +0.0000; +0.0000; +0.0000; 
+194.4987; -55.8761; -55.8820; +0.0000; +0.0000; +0.0000; 
+194.7021; -54.5589; -54.5639; +0.0000; +0.0000; +0.0000; 
+194.9056; -55.1281; -55.1345; +0.0000; +0.0000; +0.0000; 
+195.1090; -54.6659; -54.6714; +0.0000; +0.0000; +0.0000; 
+195.3125; -54.8413; -54.8485; +0.0000; +0.0000; +0.0000; 
+195.5160; -55.0921; -55.0983; +0.0000; +0.0000; +0.0000; 
+195.7194; -54.3088; -54.3157; +0.0000; +0.0000; +0.0000; 
+195.9229; -54.5049; -54.5115; +0.0000; +0.0000; +0.0000; 
+196.1263; -54.9214; -54.9288; +0.0000; +0.0000; +0.0000; 
+196.3298; -54.7974; -54.8042; +0.0000; +0.0000; +0.0000; 
+196.5332; -55.5661; -55.5728; +0.0000; +0.0000; +0.0000; 
+196.7367; -54.4882; -54.4961; +0.0000; +0.0000; +0.0000; 
+196.9401; -54.9078; -54.9158; +0.0000; +0.0000; +0.0000; 
+197.1436; -54.6354; -54.6433; +0.0000; +0.0000; +0.0000; 
+197.3470; -55.0303; -55.0394; +0.0000; +0.0000; +0.0000; 
+197.5505; -55.6306; -55.6386; +0.0000; +0.0000; +0.0000; 
+197.7539; -55.6919; -55.6974; +0.0000; +0.0000; +0.0000; 
+197.9574; -53.9446; -53.9556; +0.0000; +0.0000; +0.0000; 
+198.1608; -56.1089; -56.1172; +0.0000; +0.0000; +0.0000; 
+198.3643; -53.3998; -53.4104; +0.0000; +0.0000; +0.0000; 
+198.5677; -55.3414; -55.3509; +0.0000; +0.0000; +0.0000; 
+198.7712; -54.9423; -54.9504; +0.0000; +0.0000; +0.0000; 
+198.9746; -54.3530; -54.3634; +0.0000; +0.0000; +0.0000; 
+199.1781; -55.4239; -55.4330; +0.0000; +0.0000; +0.0000; 
+199.3815; -54.1982; -54.2085; +0.0000; +0.0000; +0.0000; 
+199.5850; -54.7442; -54.7538; +0.0000; +0.0000; +0.0000; 
+199.7884; -55.7253; -55.7339; +0.0000; +0.0000; +0.0000; 
+199.9919; -53.8481; -53.8581; +0.0000; +0.0000; +0.0000; 
